C:\Users\fhs\webgoat\webgoat-lessons\challenge\src\main\java\org\owasp\webgoat\challenges\Email.java
C:\Users\fhs\webgoat\webgoat-lessons\challenge\src\main\java\org\owasp\webgoat\challenges\challenge7\MD5.java
C:\Users\fhs\webgoat\webgoat-lessons\challenge\src\main\java\org\owasp\webgoat\challenges\challenge7\PasswordResetLink.java
C:\Users\fhs\webgoat\webgoat-lessons\challenge\src\main\java\org\owasp\webgoat\challenges\SolutionConstants.java
C:\Users\fhs\webgoat\webgoat-lessons\challenge\src\main\java\org\owasp\webgoat\challenges\challenge7\Assignment7.java
C:\Users\fhs\webgoat\webgoat-lessons\challenge\src\main\java\org\owasp\webgoat\challenges\ChallengeIntro.java
C:\Users\fhs\webgoat\webgoat-lessons\challenge\src\main\java\org\owasp\webgoat\challenges\challenge8\Assignment8.java
C:\Users\fhs\webgoat\webgoat-lessons\challenge\src\main\java\org\owasp\webgoat\challenges\challenge1\ImageServlet.java
C:\Users\fhs\webgoat\webgoat-lessons\challenge\src\main\java\org\owasp\webgoat\challenges\challenge5\Assignment5.java
C:\Users\fhs\webgoat\webgoat-lessons\challenge\src\main\java\org\owasp\webgoat\challenges\challenge1\Assignment1.java
C:\Users\fhs\webgoat\webgoat-lessons\challenge\src\main\java\org\owasp\webgoat\challenges\challenge1\Challenge1.java
C:\Users\fhs\webgoat\webgoat-lessons\challenge\src\main\java\org\owasp\webgoat\challenges\challenge5\Challenge5.java
C:\Users\fhs\webgoat\webgoat-lessons\challenge\src\main\java\org\owasp\webgoat\challenges\Flag.java
C:\Users\fhs\webgoat\webgoat-lessons\challenge\src\main\java\org\owasp\webgoat\challenges\challenge8\Challenge8.java
C:\Users\fhs\webgoat\webgoat-lessons\challenge\src\main\java\org\owasp\webgoat\challenges\challenge7\Challenge7.java
