C:\Users\fhs\webgoat\webgoat-lessons\sql-injection\src\main\java\org\owasp\webgoat\sql_injection\introduction\SqlInjectionLesson5a.java
C:\Users\fhs\webgoat\webgoat-lessons\sql-injection\src\main\java\org\owasp\webgoat\sql_injection\advanced\SqlInjectionLesson6b.java
C:\Users\fhs\webgoat\webgoat-lessons\sql-injection\src\main\java\org\owasp\webgoat\sql_injection\introduction\SqlInjectionLesson10.java
C:\Users\fhs\webgoat\webgoat-lessons\sql-injection\src\main\java\org\owasp\webgoat\sql_injection\introduction\SqlInjectionLesson5.java
C:\Users\fhs\webgoat\webgoat-lessons\sql-injection\src\main\java\org\owasp\webgoat\sql_injection\introduction\SqlInjectionLesson8.java
C:\Users\fhs\webgoat\webgoat-lessons\sql-injection\src\main\java\org\owasp\webgoat\sql_injection\mitigation\SqlInjectionLesson10a.java
C:\Users\fhs\webgoat\webgoat-lessons\sql-injection\src\main\java\org\owasp\webgoat\sql_injection\mitigation\Servers.java
C:\Users\fhs\webgoat\webgoat-lessons\sql-injection\src\main\java\org\owasp\webgoat\sql_injection\mitigation\SqlInjectionLesson13.java
C:\Users\fhs\webgoat\webgoat-lessons\sql-injection\src\main\java\org\owasp\webgoat\sql_injection\introduction\SqlInjection.java
C:\Users\fhs\webgoat\webgoat-lessons\sql-injection\src\main\java\org\owasp\webgoat\sql_injection\introduction\SqlInjectionLesson2.java
C:\Users\fhs\webgoat\webgoat-lessons\sql-injection\src\main\java\org\owasp\webgoat\sql_injection\mitigation\SqlInjectionMitigations.java
C:\Users\fhs\webgoat\webgoat-lessons\sql-injection\src\main\java\org\owasp\webgoat\sql_injection\advanced\SqlInjectionAdvanced.java
C:\Users\fhs\webgoat\webgoat-lessons\sql-injection\src\main\java\org\owasp\webgoat\sql_injection\advanced\SqlInjectionChallenge.java
C:\Users\fhs\webgoat\webgoat-lessons\sql-injection\src\main\java\org\owasp\webgoat\sql_injection\introduction\SqlInjectionLesson3.java
C:\Users\fhs\webgoat\webgoat-lessons\sql-injection\src\main\java\org\owasp\webgoat\sql_injection\mitigation\SqlOnlyInputValidation.java
C:\Users\fhs\webgoat\webgoat-lessons\sql-injection\src\main\java\org\owasp\webgoat\sql_injection\advanced\SqlInjectionQuiz.java
C:\Users\fhs\webgoat\webgoat-lessons\sql-injection\src\main\java\org\owasp\webgoat\sql_injection\mitigation\SqlOnlyInputValidationOnKeywords.java
C:\Users\fhs\webgoat\webgoat-lessons\sql-injection\src\main\java\org\owasp\webgoat\sql_injection\advanced\SqlInjectionLesson6a.java
C:\Users\fhs\webgoat\webgoat-lessons\sql-injection\src\main\java\org\owasp\webgoat\sql_injection\advanced\SqlInjectionChallengeLogin.java
C:\Users\fhs\webgoat\webgoat-lessons\sql-injection\src\main\java\org\owasp\webgoat\sql_injection\mitigation\SqlInjectionLesson10b.java
C:\Users\fhs\webgoat\webgoat-lessons\sql-injection\src\main\java\org\owasp\webgoat\sql_injection\introduction\SqlInjectionLesson4.java
C:\Users\fhs\webgoat\webgoat-lessons\sql-injection\src\main\java\org\owasp\webgoat\sql_injection\introduction\SqlInjectionLesson5b.java
C:\Users\fhs\webgoat\webgoat-lessons\sql-injection\src\main\java\org\owasp\webgoat\sql_injection\introduction\SqlInjectionLesson9.java
