C:\Users\fhs\webgoat\webgoat-lessons\bypass-restrictions\src\main\java\org\owasp\webgoat\bypass_restrictions\BypassRestrictions.java
C:\Users\fhs\webgoat\webgoat-lessons\bypass-restrictions\src\main\java\org\owasp\webgoat\bypass_restrictions\BypassRestrictionsFrontendValidation.java
C:\Users\fhs\webgoat\webgoat-lessons\bypass-restrictions\src\main\java\org\owasp\webgoat\bypass_restrictions\BypassRestrictionsFieldRestrictions.java
