C:\Users\fhs\webgoat\webgoat-lessons\jwt\src\test\java\org\owasp\webgoat\jwt\JWTSecretKeyEndpointTest.java
C:\Users\fhs\webgoat\webgoat-lessons\jwt\src\test\java\org\owasp\webgoat\jwt\TokenTest.java
C:\Users\fhs\webgoat\webgoat-lessons\jwt\src\test\java\org\owasp\webgoat\jwt\JWTRefreshEndpointTest.java
C:\Users\fhs\webgoat\webgoat-lessons\jwt\src\test\java\org\owasp\webgoat\jwt\JWTVotesEndpointTest.java
C:\Users\fhs\webgoat\webgoat-lessons\jwt\src\test\java\org\owasp\webgoat\jwt\JWTFinalEndpointTest.java
